<?xml version="1.0" encoding="utf-8"?>
<!-- Generator: Adobe Illustrator 18.0.0, SVG Export Plug-In . SVG Version: 6.00 Build 0)  -->
<!DOCTYPE svg PUBLIC "-//W3C//DTD SVG 1.1//EN" "http://www.w3.org/Graphics/SVG/1.1/DTD/svg11.dtd">
<svg version="1.1" xmlns="http://www.w3.org/2000/svg" xmlns:xlink="http://www.w3.org/1999/xlink" x="0px" y="0px"
	 viewBox="0 0 400 400" enable-background="new 0 0 400 400" xml:space="preserve">
<g id="SEO">
	<g id="BG" display="none">
	</g>
	<g id="Back">
	</g>
	<g id="Ipad">
	</g>
	<g id="Dash_front">
	</g>
</g>
<g id="Paid_serach">
	<g id="BG_1_" display="none">
		<circle display="inline" fill="#C2B59B" cx="201.6" cy="199.5" r="180"/>
	</g>
	<g id="Layer_9" display="none">
	</g>
	<path fill="#D1D3D4" d="M338.3,273.1h-275c-1.1,0-2-0.9-2-2v-173c0-1.1,0.9-2,2-2h275c1.1,0,2,0.9,2,2v173
		C340.3,272.2,339.4,273.1,338.3,273.1z"/>
	<g id="Layer_10">
		<rect x="59.7" y="95.3" fill="#FFFFFF" width="285.7" height="7"/>
	</g>
	<g id="Layer_12">
		<path fill="#FFFFFF" d="M324,265.6H197.6c-2.8,0-5-2.2-5-5V139.8c0-2.8,2.2-5,5-5H324c2.8,0,5,2.2,5,5v120.8
			C329,263.3,326.8,265.6,324,265.6z"/>
		<path fill="#FFFFFF" d="M176.7,265.6H75.1c-2.8,0-5-2.2-5-5V139.8c0-2.8,2.2-5,5-5h101.6c2.8,0,5,2.2,5,5v120.8
			C181.7,263.3,179.5,265.6,176.7,265.6z"/>
		<path fill="#FFFFFF" d="M324.4,125.7H75.1c-2.8,0-5-2.2-5-5v-1.9c0-2.8,2.2-5,5-5h249.3c2.8,0,5,2.2,5,5v1.9
			C329.4,123.4,327.2,125.7,324.4,125.7z"/>
		<path fill="#D1D3D4" d="M130.5,155.7H84.8c-1.6,0-2.8-1.3-2.8-2.8l0,0c0-1.6,1.3-2.8,2.8-2.8h45.6c1.6,0,2.8,1.3,2.8,2.8l0,0
			C133.3,154.4,132.1,155.7,130.5,155.7z"/>
		<path fill="#D1D3D4" d="M130.5,164.2H84.8c-1.6,0-2.8-1.3-2.8-2.8v0c0-1.6,1.3-2.8,2.8-2.8h45.6c1.6,0,2.8,1.3,2.8,2.8v0
			C133.3,162.9,132.1,164.2,130.5,164.2z"/>
		<path fill="#D1D3D4" d="M130.5,172.8H84.8c-1.6,0-2.8-1.3-2.8-2.8v0c0-1.6,1.3-2.8,2.8-2.8h45.6c1.6,0,2.8,1.3,2.8,2.8v0
			C133.3,171.6,132.1,172.8,130.5,172.8z"/>
		<path fill="#D1D3D4" d="M111.3,181.4H84.8c-1.6,0-2.8-1.3-2.8-2.8l0,0c0-1.6,1.3-2.8,2.8-2.8h26.5c1.6,0,2.8,1.3,2.8,2.8l0,0
			C114.2,180.1,112.9,181.4,111.3,181.4z"/>
		<path fill="#D1D3D4" d="M249.3,148.5h-45.6c-1.6,0-2.8-1.3-2.8-2.8v0c0-1.6,1.3-2.8,2.8-2.8h45.6c1.6,0,2.8,1.3,2.8,2.8v0
			C252.1,147.2,250.8,148.5,249.3,148.5z"/>
		<path fill="#D1D3D4" d="M249.3,157.1h-45.6c-1.6,0-2.8-1.3-2.8-2.8l0,0c0-1.6,1.3-2.8,2.8-2.8h45.6c1.6,0,2.8,1.3,2.8,2.8l0,0
			C252.1,155.8,250.8,157.1,249.3,157.1z"/>
		<path fill="#D1D3D4" d="M249.3,165.7h-45.6c-1.6,0-2.8-1.3-2.8-2.8v0c0-1.6,1.3-2.8,2.8-2.8h45.6c1.6,0,2.8,1.3,2.8,2.8v0
			C252.1,164.4,250.8,165.7,249.3,165.7z"/>
		<path fill="#D1D3D4" d="M230.1,174.2h-26.5c-1.6,0-2.8-1.3-2.8-2.8v0c0-1.6,1.3-2.8,2.8-2.8h26.5c1.6,0,2.8,1.3,2.8,2.8v0
			C233,172.9,231.7,174.2,230.1,174.2z"/>
	</g>
	<g id="Layer_11">
		<ellipse display="none" fill="#FFFFFF" cx="141" cy="213.7" rx="20" ry="8.3"/>
		<ellipse display="none" fill="#FFFFFF" cx="141" cy="208.7" rx="20" ry="8.3"/>
		<g>
			<g>
				<g enable-background="new    ">
					<g>
						<path fill="#E8A33B" d="M95.9,230.5c8-0.6,16.7,0.6,19.5,2.6c2.8,2-1.4,4.1-9.4,4.6c-8,0.6-16.7-0.6-19.5-2.6
							C83.7,233.1,87.9,231.1,95.9,230.5z"/>
					</g>
					<g enable-background="new    ">
						<defs>
							<path id="SVGID_1_" enable-background="new    " d="M116.3,234.4l-0.1,3.9c0,1.5-4,2.9-10.2,3.4c-8,0.6-16.7-0.6-19.5-2.6
								c-0.6-0.4-0.9-0.9-0.9-1.3l0.1-3.9c0,0.4,0.3,0.8,0.9,1.3c2.8,2,11.5,3.2,19.5,2.6C112.3,237.3,116.3,235.9,116.3,234.4z"/>
						</defs>
						<clipPath id="SVGID_2_">
							<use xlink:href="#SVGID_1_"  overflow="visible"/>
						</clipPath>
						<g clip-path="url(#SVGID_2_)" enable-background="new    ">
							<path fill="#B27D2E" d="M116.3,234.4l-0.1,3.9c0,0.4-0.2,0.7-0.6,1l0.1-3.9C116.1,235.1,116.3,234.7,116.3,234.4"/>
							<path fill="#B37D2E" d="M115.7,235.4l-0.1,3.9c-0.5,0.4-1.1,0.7-2,1l0.1-3.9C114.5,236.1,115.2,235.8,115.7,235.4"/>
							<path fill="#B37E2E" d="M113.6,236.4l-0.1,3.9c-1.1,0.4-2.5,0.7-4.1,0.9l0.1-3.9C111.2,237.1,112.5,236.8,113.6,236.4"/>
							<path fill="#B37E2E" d="M109.5,237.4l-0.1,3.9c-1.1,0.2-2.2,0.3-3.5,0.4c-1.6,0.1-3.3,0.2-4.9,0.1l0.1-3.9
								c1.6,0,3.3,0,4.9-0.1C107.3,237.7,108.5,237.5,109.5,237.4"/>
							<path fill="#B37E2E" d="M101.1,237.9l-0.1,3.9c-2,0-3.9-0.1-5.7-0.3l0.1-3.9C97.2,237.7,99.2,237.9,101.1,237.9"/>
							<path fill="#B37D2E" d="M95.4,237.5l-0.1,3.9c-1.5-0.2-2.9-0.4-4.1-0.7l0.1-3.9C92.5,237.1,93.9,237.4,95.4,237.5"/>
							<path fill="#B27D2E" d="M91.3,236.9l-0.1,3.9c-2.1-0.5-3.8-1-4.8-1.7c-0.6-0.4-0.9-0.9-0.9-1.3l0.1-3.9
								c0,0.4,0.3,0.8,0.9,1.3C87.5,235.8,89.2,236.4,91.3,236.9"/>
						</g>
					</g>
				</g>
			</g>
		</g>
		<g>
			<g>
				<g enable-background="new    ">
					<g>
						<path fill="#E8A33B" d="M95.9,225.1c8-0.6,16.7,0.6,19.5,2.6c2.8,2-1.4,4.1-9.4,4.6c-8,0.6-16.7-0.6-19.5-2.6
							C83.7,227.7,87.9,225.7,95.9,225.1z"/>
					</g>
					<g enable-background="new    ">
						<defs>
							<path id="SVGID_3_" enable-background="new    " d="M116.3,229l-0.1,3.9c0,1.5-4,2.9-10.2,3.4c-8,0.6-16.7-0.6-19.5-2.6
								c-0.6-0.4-0.9-0.9-0.9-1.3l0.1-3.9c0,0.4,0.3,0.8,0.9,1.3c2.8,2,11.5,3.2,19.5,2.6C112.3,231.9,116.3,230.5,116.3,229z"/>
						</defs>
						<clipPath id="SVGID_4_">
							<use xlink:href="#SVGID_3_"  overflow="visible"/>
						</clipPath>
						<g clip-path="url(#SVGID_4_)" enable-background="new    ">
							<path fill="#B27D2E" d="M116.3,229l-0.1,3.9c0,0.4-0.2,0.7-0.6,1l0.1-3.9C116.1,229.7,116.3,229.3,116.3,229"/>
							<path fill="#B37D2E" d="M115.7,230l-0.1,3.9c-0.5,0.4-1.1,0.7-2,1l0.1-3.9C114.5,230.7,115.2,230.4,115.7,230"/>
							<path fill="#B37E2E" d="M113.6,231l-0.1,3.9c-1.1,0.4-2.5,0.7-4.1,0.9l0.1-3.9C111.2,231.7,112.5,231.4,113.6,231"/>
							<path fill="#B37E2E" d="M109.5,232l-0.1,3.9c-1.1,0.2-2.2,0.3-3.5,0.4c-1.6,0.1-3.3,0.2-4.9,0.1l0.1-3.9c1.6,0,3.3,0,4.9-0.1
								C107.3,232.2,108.5,232.1,109.5,232"/>
							<path fill="#B37E2E" d="M101.1,232.5l-0.1,3.9c-2,0-3.9-0.1-5.7-0.3l0.1-3.9C97.2,232.3,99.2,232.4,101.1,232.5"/>
							<path fill="#B37D2E" d="M95.4,232.1l-0.1,3.9c-1.5-0.2-2.9-0.4-4.1-0.7l0.1-3.9C92.5,231.7,93.9,232,95.4,232.1"/>
							<path fill="#B27D2E" d="M91.3,231.5l-0.1,3.9c-2.1-0.5-3.8-1-4.8-1.7c-0.6-0.4-0.9-0.9-0.9-1.3l0.1-3.9
								c0,0.4,0.3,0.8,0.9,1.3C87.5,230.4,89.2,231,91.3,231.5"/>
						</g>
					</g>
				</g>
			</g>
		</g>
		<g>
			<g>
				<g enable-background="new    ">
					<g>
						<path fill="#E8A33B" d="M95.9,219.7c8-0.6,16.7,0.6,19.5,2.6c2.8,2-1.4,4.1-9.4,4.6c-8,0.6-16.7-0.6-19.5-2.6
							C83.7,222.3,87.9,220.3,95.9,219.7z"/>
					</g>
					<g enable-background="new    ">
						<defs>
							<path id="SVGID_5_" enable-background="new    " d="M116.3,223.6l-0.1,3.9c0,1.5-4,2.9-10.2,3.4c-8,0.6-16.7-0.6-19.5-2.6
								c-0.6-0.4-0.9-0.9-0.9-1.3l0.1-3.9c0,0.4,0.3,0.8,0.9,1.3c2.8,2,11.5,3.2,19.5,2.6C112.3,226.5,116.3,225.1,116.3,223.6z"/>
						</defs>
						<clipPath id="SVGID_6_">
							<use xlink:href="#SVGID_5_"  overflow="visible"/>
						</clipPath>
						<g clip-path="url(#SVGID_6_)" enable-background="new    ">
							<path fill="#B27D2E" d="M116.3,223.6l-0.1,3.9c0,0.4-0.2,0.7-0.6,1l0.1-3.9C116.1,224.3,116.3,223.9,116.3,223.6"/>
							<path fill="#B37D2E" d="M115.7,224.6l-0.1,3.9c-0.5,0.4-1.1,0.7-2,1l0.1-3.9C114.5,225.3,115.2,225,115.7,224.6"/>
							<path fill="#B37E2E" d="M113.6,225.6l-0.1,3.9c-1.1,0.4-2.5,0.7-4.1,0.9l0.1-3.9C111.1,226.3,112.5,226,113.6,225.6"/>
							<path fill="#B37E2E" d="M109.5,226.6l-0.1,3.9c-1.1,0.2-2.2,0.3-3.5,0.4c-1.6,0.1-3.3,0.2-4.9,0.1l0.1-3.9
								c1.6,0,3.3,0,4.9-0.1C107.3,226.8,108.5,226.7,109.5,226.6"/>
							<path fill="#B37E2E" d="M101.1,227.1l-0.1,3.9c-2,0-3.9-0.1-5.7-0.3l0.1-3.9C97.2,226.9,99.2,227,101.1,227.1"/>
							<path fill="#B37D2E" d="M95.4,226.7l-0.1,3.9c-1.5-0.2-2.9-0.4-4.1-0.7l0.1-3.9C92.5,226.3,93.9,226.5,95.4,226.7"/>
							<path fill="#B27D2E" d="M91.3,226.1l-0.1,3.9c-2.1-0.5-3.8-1-4.8-1.7c-0.6-0.4-0.9-0.9-0.9-1.3l0.1-3.9
								c0,0.4,0.3,0.8,0.9,1.3C87.5,225,89.2,225.6,91.3,226.1"/>
						</g>
					</g>
				</g>
			</g>
		</g>
		<g>
			<g>
				<g enable-background="new    ">
					<g>
						<path fill="#E8A33B" d="M95.9,214.3c8-0.6,16.7,0.6,19.5,2.6c2.8,2-1.4,4.1-9.4,4.6c-8,0.6-16.7-0.6-19.5-2.6
							C83.7,216.9,87.9,214.8,95.9,214.3z"/>
					</g>
					<g enable-background="new    ">
						<defs>
							<path id="SVGID_7_" enable-background="new    " d="M116.3,218.2l-0.1,3.9c0,1.5-4,2.9-10.2,3.4c-8,0.6-16.7-0.6-19.5-2.6
								c-0.6-0.4-0.9-0.9-0.9-1.3l0.1-3.9c0,0.4,0.3,0.8,0.9,1.3c2.8,2,11.5,3.2,19.5,2.6C112.3,221.1,116.3,219.7,116.3,218.2z"/>
						</defs>
						<clipPath id="SVGID_8_">
							<use xlink:href="#SVGID_7_"  overflow="visible"/>
						</clipPath>
						<g clip-path="url(#SVGID_8_)" enable-background="new    ">
							<path fill="#B27D2E" d="M116.3,218.2l-0.1,3.9c0,0.4-0.2,0.7-0.6,1l0.1-3.9C116.1,218.9,116.3,218.5,116.3,218.2"/>
							<path fill="#B37D2E" d="M115.7,219.2l-0.1,3.9c-0.5,0.4-1.1,0.7-2,1l0.1-3.9C114.5,219.9,115.2,219.5,115.7,219.2"/>
							<path fill="#B37E2E" d="M113.6,220.2l-0.1,3.9c-1.1,0.4-2.5,0.7-4.1,0.9l0.1-3.9C111.2,220.9,112.5,220.6,113.6,220.2"/>
							<path fill="#B37E2E" d="M109.5,221.1l-0.1,3.9c-1.1,0.2-2.2,0.3-3.5,0.4c-1.6,0.1-3.3,0.2-4.9,0.1l0.1-3.9
								c1.6,0,3.3,0,4.9-0.1C107.3,221.4,108.5,221.3,109.5,221.1"/>
							<path fill="#B37E2E" d="M101.1,221.6l-0.1,3.9c-2,0-3.9-0.1-5.7-0.3l0.1-3.9C97.2,221.5,99.2,221.6,101.1,221.6"/>
							<path fill="#B37D2E" d="M95.4,221.3l-0.1,3.9c-1.5-0.2-2.9-0.4-4.1-0.7l0.1-3.9C92.5,220.9,93.9,221.1,95.4,221.3"/>
							<path fill="#B27D2E" d="M91.3,220.6l-0.1,3.9c-2.1-0.5-3.8-1-4.8-1.7c-0.6-0.4-0.9-0.9-0.9-1.3l0.1-3.9
								c0,0.4,0.3,0.8,0.9,1.3C87.5,219.6,89.2,220.2,91.3,220.6"/>
						</g>
					</g>
				</g>
			</g>
		</g>
		<g>
			<g>
				<g enable-background="new    ">
					<g>
						<path fill="#E8A33B" d="M120.2,238.6c8-0.6,16.7,0.6,19.5,2.6c2.8,2-1.4,4.1-9.4,4.6c-8,0.6-16.7-0.6-19.5-2.6
							C108.1,241.3,112.3,239.2,120.2,238.6z"/>
					</g>
					<g enable-background="new    ">
						<defs>
							<path id="SVGID_9_" enable-background="new    " d="M140.6,242.5l-0.1,3.9c0,1.5-4,2.9-10.2,3.4c-8,0.6-16.7-0.6-19.5-2.6
								c-0.6-0.4-0.9-0.9-0.9-1.3l0.1-3.9c0,0.4,0.3,0.8,0.9,1.3c2.8,2,11.5,3.2,19.5,2.6C136.7,245.4,140.6,244.1,140.6,242.5z"/>
						</defs>
						<clipPath id="SVGID_10_">
							<use xlink:href="#SVGID_9_"  overflow="visible"/>
						</clipPath>
						<g clip-path="url(#SVGID_10_)" enable-background="new    ">
							<path fill="#B27D2E" d="M140.6,242.5l-0.1,3.9c0,0.4-0.2,0.7-0.6,1l0.1-3.9C140.4,243.2,140.6,242.9,140.6,242.5"/>
							<path fill="#B37D2E" d="M140,243.5l-0.1,3.9c-0.5,0.4-1.1,0.7-2,1l0.1-3.9C138.9,244.3,139.6,243.9,140,243.5"/>
							<path fill="#B37E2E" d="M138,244.6l-0.1,3.9c-1.1,0.4-2.5,0.7-4.1,0.9l0.1-3.9C135.5,245.3,136.9,244.9,138,244.6"/>
							<path fill="#B37E2E" d="M133.9,245.5l-0.1,3.9c-1.1,0.2-2.2,0.3-3.5,0.4c-1.6,0.1-3.3,0.2-4.9,0.1l0.1-3.9
								c1.6,0,3.3,0,4.9-0.1C131.7,245.8,132.8,245.7,133.9,245.5"/>
							<path fill="#B37E2E" d="M125.5,246l-0.1,3.9c-2,0-3.9-0.1-5.7-0.3l0.1-3.9C121.6,245.9,123.5,246,125.5,246"/>
							<path fill="#B37D2E" d="M119.8,245.7l-0.1,3.9c-1.5-0.2-2.9-0.4-4.1-0.7l0.1-3.9C116.9,245.3,118.3,245.5,119.8,245.7"/>
							<path fill="#B27D2E" d="M115.6,245l-0.1,3.9c-2.1-0.5-3.8-1-4.8-1.7c-0.6-0.4-0.9-0.9-0.9-1.3l0.1-3.9c0,0.4,0.3,0.8,0.9,1.3
								C111.9,244,113.5,244.5,115.6,245"/>
						</g>
					</g>
				</g>
			</g>
		</g>
		<g>
			<g>
				<g enable-background="new    ">
					<g>
						<path fill="#E8A33B" d="M120.2,233.2c8-0.6,16.7,0.6,19.5,2.6c2.8,2-1.4,4.1-9.4,4.6c-8,0.6-16.7-0.6-19.5-2.6
							C108.1,235.9,112.3,233.8,120.2,233.2z"/>
					</g>
					<g enable-background="new    ">
						<defs>
							<path id="SVGID_11_" enable-background="new    " d="M140.6,237.1l-0.1,3.9c0,1.5-4,2.9-10.2,3.4c-8,0.6-16.7-0.6-19.5-2.6
								c-0.6-0.4-0.9-0.9-0.9-1.3l0.1-3.9c0,0.4,0.3,0.8,0.9,1.3c2.8,2,11.5,3.2,19.5,2.6C136.7,240,140.6,238.6,140.6,237.1z"/>
						</defs>
						<clipPath id="SVGID_12_">
							<use xlink:href="#SVGID_11_"  overflow="visible"/>
						</clipPath>
						<g clip-path="url(#SVGID_12_)" enable-background="new    ">
							<path fill="#B27D2E" d="M140.6,237.1l-0.1,3.9c0,0.4-0.2,0.7-0.6,1l0.1-3.9C140.4,237.8,140.6,237.5,140.6,237.1"/>
							<path fill="#B37D2E" d="M140,238.1L140,242c-0.5,0.4-1.1,0.7-2,1l0.1-3.9C138.9,238.8,139.6,238.5,140,238.1"/>
							<path fill="#B37E2E" d="M138,239.2l-0.1,3.9c-1.1,0.4-2.5,0.7-4.1,0.9l0.1-3.9C135.5,239.8,136.9,239.5,138,239.2"/>
							<path fill="#B37E2E" d="M133.9,240.1l-0.1,3.9c-1.1,0.2-2.2,0.3-3.5,0.4c-1.6,0.1-3.3,0.2-4.9,0.1l0.1-3.9
								c1.6,0,3.3,0,4.9-0.1C131.7,240.4,132.8,240.2,133.9,240.1"/>
							<path fill="#B37E2E" d="M125.5,240.6l-0.1,3.9c-2,0-3.9-0.1-5.7-0.3l0.1-3.9C121.6,240.4,123.5,240.6,125.5,240.6"/>
							<path fill="#B37D2E" d="M119.8,240.2l-0.1,3.9c-1.5-0.2-2.9-0.4-4.1-0.7l0.1-3.9C116.9,239.9,118.3,240.1,119.8,240.2"/>
							<path fill="#B27D2E" d="M115.6,239.6l-0.1,3.9c-2.1-0.5-3.8-1-4.8-1.7c-0.6-0.4-0.9-0.9-0.9-1.3l0.1-3.9
								c0,0.4,0.3,0.8,0.9,1.3C111.9,238.5,113.5,239.1,115.6,239.6"/>
						</g>
					</g>
				</g>
			</g>
		</g>
		<g>
			<g>
				<g enable-background="new    ">
					<g>
						<path fill="#E8A33B" d="M151.4,235.9c8-0.6,16.7,0.6,19.5,2.6c2.8,2-1.4,4.1-9.4,4.6c-8,0.6-16.7-0.6-19.5-2.6
							C139.2,238.6,143.4,236.5,151.4,235.9z"/>
					</g>
					<g enable-background="new    ">
						<defs>
							<path id="SVGID_13_" enable-background="new    " d="M171.8,239.8l-0.1,3.9c0,1.5-4,2.9-10.2,3.4c-8,0.6-16.7-0.6-19.5-2.6
								c-0.6-0.4-0.9-0.9-0.9-1.3l0.1-3.9c0,0.4,0.3,0.8,0.9,1.3c2.8,2,11.5,3.2,19.5,2.6C167.8,242.7,171.7,241.3,171.8,239.8z"/>
						</defs>
						<clipPath id="SVGID_14_">
							<use xlink:href="#SVGID_13_"  overflow="visible"/>
						</clipPath>
						<g clip-path="url(#SVGID_14_)" enable-background="new    ">
							<path fill="#B27D2E" d="M171.8,239.8l-0.1,3.9c0,0.4-0.2,0.7-0.6,1l0.1-3.9C171.5,240.5,171.8,240.2,171.8,239.8"/>
							<path fill="#B37D2E" d="M171.1,240.8l-0.1,3.9c-0.5,0.4-1.1,0.7-2,1l0.1-3.9C170,241.6,170.7,241.2,171.1,240.8"/>
							<path fill="#B37E2E" d="M169.1,241.9l-0.1,3.9c-1.1,0.4-2.5,0.7-4.1,0.9l0.1-3.9C166.6,242.6,168,242.2,169.1,241.9"/>
							<path fill="#B37E2E" d="M165,242.8l-0.1,3.9c-1.1,0.2-2.2,0.3-3.5,0.4c-1.6,0.1-3.3,0.2-4.9,0.1l0.1-3.9c1.6,0,3.3,0,4.9-0.1
								C162.8,243.1,163.9,243,165,242.8"/>
							<path fill="#B37E2E" d="M156.6,243.3l-0.1,3.9c-2,0-3.9-0.1-5.7-0.3l0.1-3.9C152.7,243.2,154.6,243.3,156.6,243.3"/>
							<path fill="#B37D2E" d="M150.9,242.9l-0.1,3.9c-1.5-0.2-2.9-0.4-4.1-0.7l0.1-3.9C148,242.6,149.4,242.8,150.9,242.9"/>
							<path fill="#B27D2E" d="M146.8,242.3l-0.1,3.9c-2.1-0.5-3.8-1-4.8-1.7c-0.6-0.4-0.9-0.9-0.9-1.3l0.1-3.9
								c0,0.4,0.3,0.8,0.9,1.3C143,241.2,144.7,241.8,146.8,242.3"/>
						</g>
					</g>
				</g>
			</g>
		</g>
		<g>
			<g>
				<g enable-background="new    ">
					<g>
						<path fill="#E8A33B" d="M151.4,230.5c8-0.6,16.7,0.6,19.5,2.6c2.8,2-1.4,4.1-9.4,4.6c-8,0.6-16.7-0.6-19.5-2.6
							C139.2,233.1,143.4,231.1,151.4,230.5z"/>
					</g>
					<g enable-background="new    ">
						<defs>
							<path id="SVGID_15_" enable-background="new    " d="M171.8,234.4l-0.1,3.9c0,1.5-4,2.9-10.2,3.4c-8,0.6-16.7-0.6-19.5-2.6
								c-0.6-0.4-0.9-0.9-0.9-1.3l0.1-3.9c0,0.4,0.3,0.8,0.9,1.3c2.8,2,11.5,3.2,19.5,2.6C167.8,237.3,171.7,235.9,171.8,234.4z"/>
						</defs>
						<clipPath id="SVGID_16_">
							<use xlink:href="#SVGID_15_"  overflow="visible"/>
						</clipPath>
						<g clip-path="url(#SVGID_16_)" enable-background="new    ">
							<path fill="#B27D2E" d="M171.8,234.4l-0.1,3.9c0,0.4-0.2,0.7-0.6,1l0.1-3.9C171.5,235.1,171.8,234.7,171.8,234.4"/>
							<path fill="#B37D2E" d="M171.1,235.4l-0.1,3.9c-0.5,0.4-1.1,0.7-2,1l0.1-3.9C170,236.1,170.7,235.8,171.1,235.4"/>
							<path fill="#B37E2E" d="M169.1,236.4l-0.1,3.9c-1.1,0.4-2.5,0.7-4.1,0.9l0.1-3.9C166.6,237.1,168,236.8,169.1,236.4"/>
							<path fill="#B37E2E" d="M165,237.4l-0.1,3.9c-1.1,0.2-2.2,0.3-3.5,0.4c-1.6,0.1-3.3,0.2-4.9,0.1l0.1-3.9c1.6,0,3.3,0,4.9-0.1
								C162.8,237.7,163.9,237.5,165,237.4"/>
							<path fill="#B37E2E" d="M156.6,237.9l-0.1,3.9c-2,0-3.9-0.1-5.7-0.3l0.1-3.9C152.7,237.7,154.6,237.9,156.6,237.9"/>
							<path fill="#B37D2E" d="M150.9,237.5l-0.1,3.9c-1.5-0.2-2.9-0.4-4.1-0.7l0.1-3.9C148,237.1,149.4,237.4,150.9,237.5"/>
							<path fill="#B27D2E" d="M146.8,236.9l-0.1,3.9c-2.1-0.5-3.8-1-4.8-1.7c-0.6-0.4-0.9-0.9-0.9-1.3l0.1-3.9
								c0,0.4,0.3,0.8,0.9,1.3C143,235.8,144.7,236.4,146.8,236.9"/>
						</g>
					</g>
				</g>
			</g>
		</g>
		<g>
			<g>
				<g enable-background="new    ">
					<g>
						<path fill="#E8A33B" d="M120.2,227.8c8-0.6,16.7,0.6,19.5,2.6c2.8,2-1.4,4.1-9.4,4.6c-8,0.6-16.7-0.6-19.5-2.6
							C108.1,230.4,112.3,228.4,120.2,227.8z"/>
					</g>
					<g enable-background="new    ">
						<defs>
							<path id="SVGID_17_" enable-background="new    " d="M140.6,231.7l-0.1,3.9c0,1.5-4,2.9-10.2,3.4c-8,0.6-16.7-0.6-19.5-2.6
								c-0.6-0.4-0.9-0.9-0.9-1.3l0.1-3.9c0,0.4,0.3,0.8,0.9,1.3c2.8,2,11.5,3.2,19.5,2.6C136.7,234.6,140.6,233.2,140.6,231.7z"/>
						</defs>
						<clipPath id="SVGID_18_">
							<use xlink:href="#SVGID_17_"  overflow="visible"/>
						</clipPath>
						<g clip-path="url(#SVGID_18_)" enable-background="new    ">
							<path fill="#B27D2E" d="M140.6,231.7l-0.1,3.9c0,0.4-0.2,0.7-0.6,1l0.1-3.9C140.4,232.4,140.6,232,140.6,231.7"/>
							<path fill="#B37D2E" d="M140,232.7l-0.1,3.9c-0.5,0.4-1.1,0.7-2,1l0.1-3.9C138.9,233.4,139.6,233.1,140,232.7"/>
							<path fill="#B37E2E" d="M138,233.7l-0.1,3.9c-1.1,0.4-2.5,0.7-4.1,0.9l0.1-3.9C135.5,234.4,136.9,234.1,138,233.7"/>
							<path fill="#B37E2E" d="M133.9,234.7l-0.1,3.9c-1.1,0.2-2.2,0.3-3.5,0.4c-1.6,0.1-3.3,0.2-4.9,0.1l0.1-3.9
								c1.6,0,3.3,0,4.9-0.1C131.7,235,132.8,234.8,133.9,234.7"/>
							<path fill="#B37E2E" d="M125.5,235.2l-0.1,3.9c-2,0-3.9-0.1-5.7-0.3l0.1-3.9C121.6,235,123.5,235.2,125.5,235.2"/>
							<path fill="#B37D2E" d="M119.8,234.8l-0.1,3.9c-1.5-0.2-2.9-0.4-4.1-0.7l0.1-3.9C116.9,234.4,118.3,234.7,119.8,234.8"/>
							<path fill="#B27D2E" d="M115.6,234.2l-0.1,3.9c-2.1-0.5-3.8-1-4.8-1.7c-0.6-0.4-0.9-0.9-0.9-1.3l0.1-3.9
								c0,0.4,0.3,0.8,0.9,1.3C111.9,233.1,113.5,233.7,115.6,234.2"/>
						</g>
					</g>
				</g>
			</g>
		</g>
		<g>
			<g>
				<g enable-background="new    ">
					<g>
						<path fill="#E8A33B" d="M120.2,222.4c8-0.6,16.7,0.6,19.5,2.6c2.8,2-1.4,4.1-9.4,4.6s-16.7-0.6-19.5-2.6
							C108.1,225,112.3,223,120.2,222.4z"/>
					</g>
					<g enable-background="new    ">
						<defs>
							<path id="SVGID_19_" enable-background="new    " d="M140.6,226.3l-0.1,3.9c0,1.5-4,2.9-10.2,3.4c-8,0.6-16.7-0.6-19.5-2.6
								c-0.6-0.4-0.9-0.9-0.9-1.3l0.1-3.9c0,0.4,0.3,0.8,0.9,1.3c2.8,2,11.5,3.2,19.5,2.6C136.7,229.2,140.6,227.8,140.6,226.3z"/>
						</defs>
						<clipPath id="SVGID_20_">
							<use xlink:href="#SVGID_19_"  overflow="visible"/>
						</clipPath>
						<g clip-path="url(#SVGID_20_)" enable-background="new    ">
							<path fill="#B27D2E" d="M140.6,226.3l-0.1,3.9c0,0.4-0.2,0.7-0.6,1l0.1-3.9C140.4,227,140.6,226.6,140.6,226.3"/>
							<path fill="#B37D2E" d="M140,227.3l-0.1,3.9c-0.5,0.4-1.1,0.7-2,1l0.1-3.9C138.9,228,139.6,227.7,140,227.3"/>
							<path fill="#B37E2E" d="M138,228.3l-0.1,3.9c-1.1,0.4-2.5,0.7-4.1,0.9l0.1-3.9C135.5,229,136.9,228.7,138,228.3"/>
							<path fill="#B37E2E" d="M133.9,229.3l-0.1,3.9c-1.1,0.2-2.2,0.3-3.5,0.4c-1.6,0.1-3.3,0.2-4.9,0.1l0.1-3.9
								c1.6,0,3.3,0,4.9-0.1C131.7,229.5,132.8,229.4,133.9,229.3"/>
							<path fill="#B37E2E" d="M125.5,229.8l-0.1,3.9c-2,0-3.9-0.1-5.7-0.3l0.1-3.9C121.6,229.6,123.5,229.7,125.5,229.8"/>
							<path fill="#B37D2E" d="M119.8,229.4l-0.1,3.9c-1.5-0.2-2.9-0.4-4.1-0.7l0.1-3.9C116.9,229,118.3,229.3,119.8,229.4"/>
							<path fill="#B27D2E" d="M115.6,228.8l-0.1,3.9c-2.1-0.5-3.8-1-4.8-1.7c-0.6-0.4-0.9-0.9-0.9-1.3l0.1-3.9
								c0,0.4,0.3,0.8,0.9,1.3C111.9,227.7,113.5,228.3,115.6,228.8"/>
						</g>
					</g>
				</g>
			</g>
		</g>
		<g>
			<g>
				<g enable-background="new    ">
					<g>
						<path fill="#E8A33B" d="M120.2,217c8-0.6,16.7,0.6,19.5,2.6c2.8,2-1.4,4.1-9.4,4.6c-8,0.6-16.7-0.6-19.5-2.6
							C108.1,219.6,112.3,217.5,120.2,217z"/>
					</g>
					<g enable-background="new    ">
						<defs>
							<path id="SVGID_21_" enable-background="new    " d="M140.6,220.9l-0.1,3.9c0,1.5-4,2.9-10.2,3.4c-8,0.6-16.7-0.6-19.5-2.6
								c-0.6-0.4-0.9-0.9-0.9-1.3l0.1-3.9c0,0.4,0.3,0.8,0.9,1.3c2.8,2,11.5,3.2,19.5,2.6C136.7,223.8,140.6,222.4,140.6,220.9z"/>
						</defs>
						<clipPath id="SVGID_22_">
							<use xlink:href="#SVGID_21_"  overflow="visible"/>
						</clipPath>
						<g clip-path="url(#SVGID_22_)" enable-background="new    ">
							<path fill="#B27D2E" d="M140.6,220.9l-0.1,3.9c0,0.4-0.2,0.7-0.6,1l0.1-3.9C140.4,221.6,140.6,221.2,140.6,220.9"/>
							<path fill="#B37D2E" d="M140,221.9l-0.1,3.9c-0.5,0.4-1.1,0.7-2,1l0.1-3.9C138.9,222.6,139.6,222.3,140,221.9"/>
							<path fill="#B37E2E" d="M138,222.9l-0.1,3.9c-1.1,0.4-2.5,0.7-4.1,0.9l0.1-3.9C135.5,223.6,136.9,223.3,138,222.9"/>
							<path fill="#B37E2E" d="M133.9,223.9l-0.1,3.9c-1.1,0.2-2.2,0.3-3.5,0.4c-1.6,0.1-3.3,0.2-4.9,0.1l0.1-3.9
								c1.6,0,3.3,0,4.9-0.1C131.7,224.1,132.8,224,133.9,223.9"/>
							<path fill="#B37E2E" d="M125.5,224.4l-0.1,3.9c-2,0-3.9-0.1-5.7-0.3l0.1-3.9C121.6,224.2,123.5,224.3,125.5,224.4"/>
							<path fill="#B37D2E" d="M119.8,224l-0.1,3.9c-1.5-0.2-2.9-0.4-4.1-0.7l0.1-3.9C116.9,223.6,118.3,223.8,119.8,224"/>
							<path fill="#B27D2E" d="M115.6,223.3l-0.1,3.9c-2.1-0.5-3.8-1-4.8-1.7c-0.6-0.4-0.9-0.9-0.9-1.3l0.1-3.9
								c0,0.4,0.3,0.8,0.9,1.3C111.9,222.3,113.5,222.9,115.6,223.3"/>
						</g>
					</g>
				</g>
			</g>
		</g>
		<g>
			<g>
				<g enable-background="new    ">
					<g>
						<path fill="#E8A33B" d="M120.2,211.6c8-0.6,16.7,0.6,19.5,2.6c2.8,2-1.4,4.1-9.4,4.6c-8,0.6-16.7-0.6-19.5-2.6
							C108.1,214.2,112.3,212.1,120.2,211.6z"/>
					</g>
					<g enable-background="new    ">
						<defs>
							<path id="SVGID_23_" enable-background="new    " d="M140.6,215.5l-0.1,3.9c0,1.5-4,2.9-10.2,3.4c-8,0.6-16.7-0.6-19.5-2.6
								c-0.6-0.4-0.9-0.9-0.9-1.3l0.1-3.9c0,0.4,0.3,0.8,0.9,1.3c2.8,2,11.5,3.2,19.5,2.6C136.7,218.4,140.6,217,140.6,215.5z"/>
						</defs>
						<clipPath id="SVGID_24_">
							<use xlink:href="#SVGID_23_"  overflow="visible"/>
						</clipPath>
						<g clip-path="url(#SVGID_24_)" enable-background="new    ">
							<path fill="#B27D2E" d="M140.6,215.5l-0.1,3.9c0,0.4-0.2,0.7-0.6,1l0.1-3.9C140.4,216.1,140.6,215.8,140.6,215.5"/>
							<path fill="#B37D2E" d="M140,216.5l-0.1,3.9c-0.5,0.4-1.1,0.7-2,1l0.1-3.9C138.9,217.2,139.6,216.8,140,216.5"/>
							<path fill="#B37E2E" d="M138,217.5l-0.1,3.9c-1.1,0.4-2.5,0.7-4.1,0.9l0.1-3.9C135.5,218.2,136.9,217.9,138,217.5"/>
							<path fill="#B37E2E" d="M133.9,218.4l-0.1,3.9c-1.1,0.2-2.2,0.3-3.5,0.4c-1.6,0.1-3.3,0.2-4.9,0.1l0.1-3.9
								c1.6,0,3.3,0,4.9-0.1C131.7,218.7,132.8,218.6,133.9,218.4"/>
							<path fill="#B37E2E" d="M125.5,218.9l-0.1,3.9c-2,0-3.9-0.1-5.7-0.3l0.1-3.9C121.6,218.8,123.5,218.9,125.5,218.9"/>
							<path fill="#B37D2E" d="M119.8,218.6l-0.1,3.9c-1.5-0.2-2.9-0.4-4.1-0.7l0.1-3.9C116.9,218.2,118.3,218.4,119.8,218.6"/>
							<path fill="#B27D2E" d="M115.6,217.9l-0.1,3.9c-2.1-0.5-3.8-1-4.8-1.7c-0.6-0.4-0.9-0.9-0.9-1.3l0.1-3.9
								c0,0.4,0.3,0.8,0.9,1.3C111.9,216.9,113.5,217.5,115.6,217.9"/>
						</g>
					</g>
				</g>
			</g>
		</g>
		<g>
			<g>
				<g enable-background="new    ">
					<g>
						<path fill="#E8A33B" d="M120.2,206.2c8-0.6,16.7,0.6,19.5,2.6c2.8,2-1.4,4.1-9.4,4.6c-8,0.6-16.7-0.6-19.5-2.6
							C108.1,208.8,112.3,206.7,120.2,206.2z"/>
					</g>
					<g enable-background="new    ">
						<defs>
							<path id="SVGID_25_" enable-background="new    " d="M140.6,210l-0.1,3.9c0,1.5-4,2.9-10.2,3.4c-8,0.6-16.7-0.6-19.5-2.6
								c-0.6-0.4-0.9-0.9-0.9-1.3l0.1-3.9c0,0.4,0.3,0.8,0.9,1.3c2.8,2,11.5,3.2,19.5,2.6C136.7,213,140.6,211.6,140.6,210z"/>
						</defs>
						<clipPath id="SVGID_26_">
							<use xlink:href="#SVGID_25_"  overflow="visible"/>
						</clipPath>
						<g clip-path="url(#SVGID_26_)" enable-background="new    ">
							<path fill="#B27D2E" d="M140.6,210l-0.1,3.9c0,0.4-0.2,0.7-0.6,1l0.1-3.9C140.4,210.7,140.6,210.4,140.6,210"/>
							<path fill="#B37D2E" d="M140,211.1l-0.1,3.9c-0.5,0.4-1.1,0.7-2,1l0.1-3.9C138.9,211.8,139.6,211.4,140,211.1"/>
							<path fill="#B37E2E" d="M138,212.1l-0.1,3.9c-1.1,0.4-2.5,0.7-4.1,0.9l0.1-3.9C135.5,212.8,136.9,212.5,138,212.1"/>
							<path fill="#B37E2E" d="M133.9,213l-0.1,3.9c-1.1,0.2-2.2,0.3-3.5,0.4c-1.6,0.1-3.3,0.2-4.9,0.1l0.1-3.9c1.6,0,3.3,0,4.9-0.1
								C131.7,213.3,132.8,213.2,133.9,213"/>
							<path fill="#B37E2E" d="M125.5,213.5l-0.1,3.9c-2,0-3.9-0.1-5.7-0.3l0.1-3.9C121.6,213.4,123.5,213.5,125.5,213.5"/>
							<path fill="#B37D2E" d="M119.8,213.2l-0.1,3.9c-1.5-0.2-2.9-0.4-4.1-0.7l0.1-3.9C116.9,212.8,118.3,213,119.8,213.2"/>
							<path fill="#B27D2E" d="M115.6,212.5l-0.1,3.9c-2.1-0.5-3.8-1-4.8-1.7c-0.6-0.4-0.9-0.9-0.9-1.3l0.1-3.9
								c0,0.4,0.3,0.8,0.9,1.3C111.9,211.5,113.5,212.1,115.6,212.5"/>
						</g>
					</g>
				</g>
			</g>
		</g>
		<g>
			<g>
				<g enable-background="new    ">
					<g>
						<path fill="#E8A33B" d="M120.2,200.7c8-0.6,16.7,0.6,19.5,2.6c2.8,2-1.4,4.1-9.4,4.6s-16.7-0.6-19.5-2.6
							C108.1,203.4,112.3,201.3,120.2,200.7z"/>
					</g>
					<g enable-background="new    ">
						<defs>
							<path id="SVGID_27_" enable-background="new    " d="M140.6,204.6l-0.1,3.9c0,1.5-4,2.9-10.2,3.4c-8,0.6-16.7-0.6-19.5-2.6
								c-0.6-0.4-0.9-0.9-0.9-1.3l0.1-3.9c0,0.4,0.3,0.8,0.9,1.3c2.8,2,11.5,3.2,19.5,2.6C136.7,207.5,140.6,206.2,140.6,204.6z"/>
						</defs>
						<clipPath id="SVGID_28_">
							<use xlink:href="#SVGID_27_"  overflow="visible"/>
						</clipPath>
						<g clip-path="url(#SVGID_28_)" enable-background="new    ">
							<path fill="#B27D2E" d="M140.6,204.6l-0.1,3.9c0,0.4-0.2,0.7-0.6,1l0.1-3.9C140.4,205.3,140.6,205,140.6,204.6"/>
							<path fill="#B37D2E" d="M140,205.7l-0.1,3.9c-0.5,0.4-1.1,0.7-2,1l0.1-3.9C138.9,206.4,139.6,206,140,205.7"/>
							<path fill="#B37E2E" d="M138,206.7l-0.1,3.9c-1.1,0.4-2.5,0.7-4.1,0.9l0.1-3.9C135.5,207.4,136.9,207.1,138,206.7"/>
							<path fill="#B37E2E" d="M133.9,207.6l-0.1,3.9c-1.1,0.2-2.2,0.3-3.5,0.4c-1.6,0.1-3.3,0.2-4.9,0.1l0.1-3.9
								c1.6,0,3.3,0,4.9-0.1C131.7,207.9,132.8,207.8,133.9,207.6"/>
							<path fill="#B37E2E" d="M125.5,208.1l-0.1,3.9c-2,0-3.9-0.1-5.7-0.3l0.1-3.9C121.6,208,123.5,208.1,125.5,208.1"/>
							<path fill="#B37D2E" d="M119.8,207.8l-0.1,3.9c-1.5-0.2-2.9-0.4-4.1-0.7l0.1-3.9C116.9,207.4,118.3,207.6,119.8,207.8"/>
							<path fill="#B27D2E" d="M115.6,207.1l-0.1,3.9c-2.1-0.5-3.8-1-4.8-1.7c-0.6-0.4-0.9-0.9-0.9-1.3l0.1-3.9
								c0,0.4,0.3,0.8,0.9,1.3C111.9,206.1,113.5,206.7,115.6,207.1"/>
						</g>
					</g>
				</g>
			</g>
		</g>
		<path fill="#726658" d="M245.5,254.4h-15.3V213c0-1.1,0.9-2,2-2h11.3c1.1,0,2,0.9,2,2V254.4z"/>
		<path fill="#8DC63F" d="M262,254.4h-15.3v-52.9c0-1.1,0.9-2,2-2H260c1.1,0,2,0.9,2,2V254.4z"/>
		<path fill="#00AEEF" d="M278.5,254.4h-15.3v-66c0-1.1,0.9-2,2-2h11.3c1.1,0,2,0.9,2,2V254.4z"/>
		<path fill="#F15A29" d="M295.1,254.4h-15.3v-75.8c0-1.1,0.9-2,2-2h11.3c1.1,0,2,0.9,2,2V254.4z"/>
		<path fill="#DA1C5C" d="M311.6,254.4h-15.3v-88.2c0-1.1,0.9-2,2-2h11.3c1.1,0,2,0.9,2,2V254.4z"/>
		<path fill="#D7DF23" d="M220.8,202.5l19.4-2.4c0.5-0.1,0.9-0.5,1-0.9l3.3-19.3c0.1-0.4,0.5-0.9,0.9-0.9l23.3-4
			c0.4-0.1,0.7-0.4,0.9-0.7l6.1-16.5c0.1-0.4,0.6-0.7,1-0.7l14-1.2c0.3,0,0.6-0.2,0.8-0.4l7.5-8.6c0.5-0.6,0.4-1.4-0.3-1.7l-0.3-0.2
			c-1.4-0.7-1.3-1.7,0.2-2.1l6.8-1.9c1-0.3,1.6,0.3,1.4,1.3l-1,5.3c-0.2,0.8-0.9,1.2-1.6,0.8l-1.4-0.7c-0.4-0.2-1.1-0.1-1.4,0.3
			l-8.4,9.9c-0.2,0.2-0.5,0.4-0.8,0.4l-13.8,1.2c-0.4,0-0.8,0.4-1,0.7l-6.1,16.1c-0.1,0.3-0.5,0.7-0.9,0.7l-23.1,3.9
			c-0.4,0.1-0.9,0.5-0.9,0.9l-3.2,19.6c-0.1,0.5-0.5,0.9-1,0.9l-21.2,2.5c-0.7,0.1-1.3-0.4-1.3-1.1l0,0
			C219.8,203.1,220.2,202.6,220.8,202.5z"/>
	</g>
	<g id="Layer_8">
		<path fill="#414042" d="M343.8,82h-286c-5.3,0-9.8,4.4-9.8,9.8V287h305V91.8C353,86.4,349.1,82,343.8,82z M340,271
			c0,1.1-0.9,2-2,2H63c-1.1,0-2-0.9-2-2V98c0-1.1,0.9-2,2-2h275c1.1,0,2,0.9,2,2V271z"/>
		<path fill="#939598" d="M3,299v0.7c0,3.3,4,6.3,8.9,6.3h377.7c5,0,8.4-3,8.4-6.3V299H3z"/>
		<path fill="#D1D3D4" d="M398.2,299.4H2.8v-10.7c0-1.1,0.9-2,2-2h391.4c1.1,0,2,0.9,2,2V299.4z"/>
		<path fill="#58595B" d="M376,293.3h-13.1c-0.4,0-0.8-0.3-0.8-0.8v-0.1c0-0.4,0.3-0.8,0.8-0.8H376c0.4,0,0.8,0.3,0.8,0.8v0.1
			C376.7,292.9,376.4,293.3,376,293.3z"/>
		<path fill="#939598" d="M169.6,286.8L169.6,286.8c0,2.9,2.3,5.2,5.2,5.2H225c2.9,0,5.2-2.3,5.2-5.2l0,0H169.6z"/>
	</g>
</g>
<g id="Layer_14">
	<g id="BG_2_" display="none">
	</g>
	<g id="Layer_15">
	</g>
	<g id="Layer_16" display="none">
	</g>
</g>
<g id="Layer_17">
	<g id="Layer_18">
	</g>
	<g id="Layer_19">
	</g>
</g>
<g id="Layer_20">
</g>
</svg>
